{
  "dashboard": {
    "annotations": {
      "list": [
        {
          "builtIn": 1,
          "datasource": "-- Grafana --",
          "enable": true,
          "hide": true,
          "iconColor": "rgba(0, 211, 255, 1)",
          "name": "Annotations & Alerts",
          "type": "dashboard"
        }
      ]
    },
    "description": "spring-boot dashboard",
    "editable": true,
    "gnetId": 315,
    "graphTooltip": 0,
    "hideControls": false,
    "id": null,
    "links": [],
    "refresh": "15s",
    "rows": [
      {
        "collapse": false,
        "height": 180,
        "panels": [
          {
            "cacheTimeout": null,
            "colorBackground": false,
            "colorValue": true,
            "colors": [
              "rgba(50, 172, 45, 0.97)",
              "rgba(237, 129, 40, 0.89)",
              "rgba(245, 54, 54, 0.9)"
            ],
            "datasource": "prom",
            "editable": true,
            "error": false,
            "format": "percent",
            "gauge": {
              "maxValue": 100,
              "minValue": 0,
              "show": true,
              "thresholdLabels": false,
              "thresholdMarkers": true
            },
            "height": "180px",
            "id": 4,
            "interval": null,
            "links": [],
            "mappingType": 1,
            "mappingTypes": [
              {
                "name": "value to text",
                "value": 1
              },
              {
                "name": "range to text",
                "value": 2
              }
            ],
            "maxDataPoints": 100,
            "nullPointMode": "connected",
            "nullText": null,
            "postfix": "",
            "postfixFontSize": "50%",
            "prefix": "",
            "prefixFontSize": "50%",
            "rangeMaps": [
              {
                "from": "null",
                "text": "N/A",
                "to": "null"
              }
            ],
            "span": 3,
            "sparkline": {
              "fillColor": "rgba(31, 118, 189, 0.18)",
              "full": false,
              "lineColor": "rgb(31, 120, 193)",
              "show": false
            },
            "tableColumn": "",
            "targets": [
              {
                "expr": "sum (jvm_memory_bytes_used{app=\"spring-boot\",area=\"heap\"}) / sum (jvm_memory_bytes_max{app=\"spring-boot\",area=\"heap\"}) * 100",
                "format": "time_series",
                "interval": "10s",
                "intervalFactor": 1,
                "refId": "A",
                "step": 10
              }
            ],
            "thresholds": "65, 90",
            "title": "JVM Heap memory usage",
            "transparent": false,
            "type": "singlestat",
            "valueFontSize": "80%",
            "valueMaps": [
              {
                "op": "=",
                "text": "N/A",
                "value": "null"
              }
            ],
            "valueName": "current"
          },
          {
            "cacheTimeout": null,
            "colorBackground": false,
            "colorValue": true,
            "colors": [
              "rgba(50, 172, 45, 0.97)",
              "rgba(237, 129, 40, 0.89)",
              "rgba(245, 54, 54, 0.9)"
            ],
            "datasource": "prom",
            "decimals": 2,
            "editable": true,
            "error": false,
            "format": "percent",
            "gauge": {
              "maxValue": 100,
              "minValue": 0,
              "show": true,
              "thresholdLabels": false,
              "thresholdMarkers": true
            },
            "height": "180px",
            "id": 6,
            "interval": null,
            "links": [],
            "mappingType": 1,
            "mappingTypes": [
              {
                "name": "value to text",
                "value": 1
              },
              {
                "name": "range to text",
                "value": 2
              }
            ],
            "maxDataPoints": 100,
            "nullPointMode": "connected",
            "nullText": null,
            "postfix": "",
            "postfixFontSize": "50%",
            "prefix": "",
            "prefixFontSize": "50%",
            "rangeMaps": [
              {
                "from": "null",
                "text": "N/A",
                "to": "null"
              }
            ],
            "span": 3,
            "sparkline": {
              "fillColor": "rgba(31, 118, 189, 0.18)",
              "full": false,
              "lineColor": "rgb(31, 120, 193)",
              "show": false
            },
            "tableColumn": "",
            "targets": [
              {
                "expr": "sum (rate (container_cpu_usage_seconds_total{container_name=\"spring-boot\"}[1m])) / count (container_cpu_usage_seconds_total{container_name=\"spring-boot\"}) * 100",
                "format": "time_series",
                "interval": "10s",
                "intervalFactor": 1,
                "refId": "A",
                "step": 10
              }
            ],
            "thresholds": "65, 90",
            "title": "CPU usage (1m avg)",
            "type": "singlestat",
            "valueFontSize": "80%",
            "valueMaps": [
              {
                "op": "=",
                "text": "N/A",
                "value": "null"
              }
            ],
            "valueName": "current"
          },
          {
            "cacheTimeout": null,
            "colorBackground": false,
            "colorValue": true,
            "colors": [
              "rgba(50, 172, 45, 0.97)",
              "rgba(237, 129, 40, 0.89)",
              "rgba(245, 54, 54, 0.9)"
            ],
            "datasource": "prom",
            "decimals": 2,
            "editable": true,
            "error": false,
            "format": "percent",
            "gauge": {
              "maxValue": 100,
              "minValue": 0,
              "show": true,
              "thresholdLabels": false,
              "thresholdMarkers": true
            },
            "height": "180px",
            "id": 7,
            "interval": null,
            "links": [],
            "mappingType": 1,
            "mappingTypes": [
              {
                "name": "value to text",
                "value": 1
              },
              {
                "name": "range to text",
                "value": 2
              }
            ],
            "maxDataPoints": 100,
            "nullPointMode": "connected",
            "nullText": null,
            "postfix": "",
            "postfixFontSize": "50%",
            "prefix": "",
            "prefixFontSize": "50%",
            "rangeMaps": [
              {
                "from": "null",
                "text": "N/A",
                "to": "null"
              }
            ],
            "span": 3,
            "sparkline": {
              "fillColor": "rgba(31, 118, 189, 0.18)",
              "full": false,
              "lineColor": "rgb(31, 120, 193)",
              "show": false
            },
            "tableColumn": "",
            "targets": [
              {
                "expr": "sum (container_fs_usage_bytes{container_name=\"spring-boot\"}) / sum (container_fs_limit_bytes{container_name=\"spring-boot\"}) * 100",
                "format": "time_series",
                "interval": "10s",
                "intervalFactor": 1,
                "legendFormat": "",
                "metric": "",
                "refId": "A",
                "step": 10
              }
            ],
            "thresholds": "65, 90",
            "title": "filesystem usage",
            "type": "singlestat",
            "valueFontSize": "80%",
            "valueMaps": [
              {
                "op": "=",
                "text": "N/A",
                "value": "null"
              }
            ],
            "valueName": "current"
          },
          {
            "cacheTimeout": null,
            "colorBackground": true,
            "colorValue": false,
            "colors": [
              "#3f6833",
              "rgba(237, 129, 40, 0.89)",
              "#d44a3a"
            ],
            "datasource": "prom",
            "format": "none",
            "gauge": {
              "maxValue": 100,
              "minValue": 0,
              "show": false,
              "thresholdLabels": false,
              "thresholdMarkers": true
            },
            "id": 31,
            "interval": null,
            "links": [],
            "mappingType": 1,
            "mappingTypes": [
              {
                "name": "value to text",
                "value": 1
              },
              {
                "name": "range to text",
                "value": 2
              }
            ],
            "maxDataPoints": 100,
            "nullPointMode": "connected",
            "nullText": null,
            "postfix": "",
            "postfixFontSize": "50%",
            "prefix": "",
            "prefixFontSize": "80%",
            "rangeMaps": [
              {
                "from": "null",
                "text": "N/A",
                "to": "null"
              }
            ],
            "span": 3,
            "sparkline": {
              "fillColor": "rgba(31, 118, 189, 0.18)",
              "full": false,
              "lineColor": "rgb(31, 120, 193)",
              "show": false
            },
            "tableColumn": "",
            "targets": [
              {
                "expr": "sum(com_tasmimrashidpk1abay_springboot_controller_WelcomeController_welcome_count_total{app=\"spring-boot\"})",
                "format": "time_series",
                "intervalFactor": 1,
                "refId": "A"
              }
            ],
            "thresholds": "10000000,50000000",
            "title": "Welcome Page Total requests",
            "type": "singlestat",
            "valueFontSize": "170%",
            "valueMaps": [
              {
                "op": "=",
                "text": "N/A",
                "value": "null"
              }
            ],
            "valueName": "current"
          },
          {
            "cacheTimeout": null,
            "colorBackground": false,
            "colorValue": false,
            "colors": [
              "rgba(50, 172, 45, 0.97)",
              "rgba(237, 129, 40, 0.89)",
              "rgba(245, 54, 54, 0.9)"
            ],
            "datasource": "prom",
            "decimals": 2,
            "editable": true,
            "error": false,
            "format": "bytes",
            "gauge": {
              "maxValue": 100,
              "minValue": 0,
              "show": false,
              "thresholdLabels": false,
              "thresholdMarkers": true
            },
            "height": "1px",
            "id": 9,
            "interval": null,
            "links": [],
            "mappingType": 1,
            "mappingTypes": [
              {
                "name": "value to text",
                "value": 1
              },
              {
                "name": "range to text",
                "value": 2
              }
            ],
            "maxDataPoints": 100,
            "nullPointMode": "connected",
            "nullText": null,
            "postfix": "",
            "postfixFontSize": "20%",
            "prefix": "",
            "prefixFontSize": "20%",
            "rangeMaps": [
              {
                "from": "null",
                "text": "N/A",
                "to": "null"
              }
            ],
            "span": 2,
            "sparkline": {
              "fillColor": "rgba(31, 118, 189, 0.18)",
              "full": false,
              "lineColor": "rgb(31, 120, 193)",
              "show": false
            },
            "tableColumn": "",
            "targets": [
              {
                "expr": "sum (jvm_memory_bytes_used{app=\"spring-boot\",area=\"heap\"})",
                "format": "time_series",
                "interval": "10s",
                "intervalFactor": 1,
                "refId": "A",
                "step": 10
              }
            ],
            "thresholds": "",
            "title": "Used Heap",
            "type": "singlestat",
            "valueFontSize": "50%",
            "valueMaps": [
              {
                "op": "=",
                "text": "N/A",
                "value": "null"
              }
            ],
            "valueName": "current"
          },
          {
            "cacheTimeout": null,
            "colorBackground": false,
            "colorValue": false,
            "colors": [
              "rgba(50, 172, 45, 0.97)",
              "rgba(237, 129, 40, 0.89)",
              "rgba(245, 54, 54, 0.9)"
            ],
            "datasource": "prom",
            "decimals": 2,
            "editable": true,
            "error": false,
            "format": "bytes",
            "gauge": {
              "maxValue": 100,
              "minValue": 0,
              "show": false,
              "thresholdLabels": false,
              "thresholdMarkers": true
            },
            "height": "1px",
            "id": 10,
            "interval": null,
            "links": [],
            "mappingType": 1,
            "mappingTypes": [
              {
                "name": "value to text",
                "value": 1
              },
              {
                "name": "range to text",
                "value": 2
              }
            ],
            "maxDataPoints": 100,
            "nullPointMode": "connected",
            "nullText": null,
            "postfix": "",
            "postfixFontSize": "50%",
            "prefix": "",
            "prefixFontSize": "50%",
            "rangeMaps": [
              {
                "from": "null",
                "text": "N/A",
                "to": "null"
              }
            ],
            "span": 2,
            "sparkline": {
              "fillColor": "rgba(31, 118, 189, 0.18)",
              "full": false,
              "lineColor": "rgb(31, 120, 193)",
              "show": false
            },
            "tableColumn": "",
            "targets": [
              {
                "expr": "sum (jvm_memory_bytes_max{app=\"spring-boot\",area=\"heap\"})",
                "format": "time_series",
                "interval": "10s",
                "intervalFactor": 1,
                "refId": "A",
                "step": 10
              }
            ],
            "thresholds": "",
            "title": "Total Heap",
            "type": "singlestat",
            "valueFontSize": "50%",
            "valueMaps": [
              {
                "op": "=",
                "text": "N/A",
                "value": "null"
              }
            ],
            "valueName": "current"
          },
          {
            "cacheTimeout": null,
            "colorBackground": false,
            "colorValue": false,
            "colors": [
              "rgba(50, 172, 45, 0.97)",
              "rgba(237, 129, 40, 0.89)",
              "rgba(245, 54, 54, 0.9)"
            ],
            "datasource": "prom",
            "decimals": 4,
            "editable": true,
            "error": false,
            "format": "none",
            "gauge": {
              "maxValue": 100,
              "minValue": 0,
              "show": false,
              "thresholdLabels": false,
              "thresholdMarkers": true
            },
            "height": "1px",
            "id": 11,
            "interval": null,
            "links": [],
            "mappingType": 1,
            "mappingTypes": [
              {
                "name": "value to text",
                "value": 1
              },
              {
                "name": "range to text",
                "value": 2
              }
            ],
            "maxDataPoints": 100,
            "nullPointMode": "connected",
            "nullText": null,
            "postfix": " cores",
            "postfixFontSize": "30%",
            "prefix": "",
            "prefixFontSize": "50%",
            "rangeMaps": [
              {
                "from": "null",
                "text": "N/A",
                "to": "null"
              }
            ],
            "span": 2,
            "sparkline": {
              "fillColor": "rgba(31, 118, 189, 0.18)",
              "full": false,
              "lineColor": "rgb(31, 120, 193)",
              "show": false
            },
            "tableColumn": "",
            "targets": [
              {
                "expr": "sum (rate (container_cpu_usage_seconds_total{container_name=\"spring-boot\"}[1m]))",
                "format": "time_series",
                "interval": "10s",
                "intervalFactor": 1,
                "refId": "A",
                "step": 10
              }
            ],
            "thresholds": "",
            "title": "CPU Used",
            "type": "singlestat",
            "valueFontSize": "50%",
            "valueMaps": [
              {
                "op": "=",
                "text": "N/A",
                "value": "null"
              }
            ],
            "valueName": "current"
          },
          {
            "cacheTimeout": null,
            "colorBackground": false,
            "colorValue": false,
            "colors": [
              "rgba(50, 172, 45, 0.97)",
              "rgba(237, 129, 40, 0.89)",
              "rgba(245, 54, 54, 0.9)"
            ],
            "datasource": "prom",
            "decimals": 2,
            "editable": true,
            "error": false,
            "format": "none",
            "gauge": {
              "maxValue": 100,
              "minValue": 0,
              "show": false,
              "thresholdLabels": false,
              "thresholdMarkers": true
            },
            "height": "1px",
            "id": 12,
            "interval": null,
            "links": [],
            "mappingType": 1,
            "mappingTypes": [
              {
                "name": "value to text",
                "value": 1
              },
              {
                "name": "range to text",
                "value": 2
              }
            ],
            "maxDataPoints": 100,
            "nullPointMode": "connected",
            "nullText": null,
            "postfix": " cores",
            "postfixFontSize": "30%",
            "prefix": "",
            "prefixFontSize": "50%",
            "rangeMaps": [
              {
                "from": "null",
                "text": "N/A",
                "to": "null"
              }
            ],
            "span": 2,
            "sparkline": {
              "fillColor": "rgba(31, 118, 189, 0.18)",
              "full": false,
              "lineColor": "rgb(31, 120, 193)",
              "show": false
            },
            "tableColumn": "",
            "targets": [
              {
                "expr": "count (container_cpu_usage_seconds_total{container_name=\"spring-boot\"})",
                "format": "time_series",
                "interval": "10s",
                "intervalFactor": 1,
                "refId": "A",
                "step": 10
              }
            ],
            "thresholds": "",
            "title": "Total CPU",
            "type": "singlestat",
            "valueFontSize": "50%",
            "valueMaps": [
              {
                "op": "=",
                "text": "N/A",
                "value": "null"
              }
            ],
            "valueName": "current"
          },
          {
            "cacheTimeout": null,
            "colorBackground": false,
            "colorValue": false,
            "colors": [
              "rgba(50, 172, 45, 0.97)",
              "rgba(237, 129, 40, 0.89)",
              "rgba(245, 54, 54, 0.9)"
            ],
            "datasource": "prom",
            "decimals": 2,
            "editable": true,
            "error": false,
            "format": "bytes",
            "gauge": {
              "maxValue": 100,
              "minValue": 0,
              "show": false,
              "thresholdLabels": false,
              "thresholdMarkers": true
            },
            "height": "1px",
            "id": 13,
            "interval": null,
            "links": [],
            "mappingType": 1,
            "mappingTypes": [
              {
                "name": "value to text",
                "value": 1
              },
              {
                "name": "range to text",
                "value": 2
              }
            ],
            "maxDataPoints": 100,
            "nullPointMode": "connected",
            "nullText": null,
            "postfix": "",
            "postfixFontSize": "50%",
            "prefix": "",
            "prefixFontSize": "50%",
            "rangeMaps": [
              {
                "from": "null",
                "text": "N/A",
                "to": "null"
              }
            ],
            "span": 2,
            "sparkline": {
              "fillColor": "rgba(31, 118, 189, 0.18)",
              "full": false,
              "lineColor": "rgb(31, 120, 193)",
              "show": false
            },
            "tableColumn": "",
            "targets": [
              {
                "expr": "sum (container_fs_usage_bytes{container_name=\"spring-boot\"})",
                "format": "time_series",
                "interval": "10s",
                "intervalFactor": 1,
                "refId": "A",
                "step": 10
              }
            ],
            "thresholds": "",
            "title": "File System Used",
            "type": "singlestat",
            "valueFontSize": "50%",
            "valueMaps": [
              {
                "op": "=",
                "text": "N/A",
                "value": "null"
              }
            ],
            "valueName": "current"
          },
          {
            "cacheTimeout": null,
            "colorBackground": false,
            "colorValue": false,
            "colors": [
              "rgba(50, 172, 45, 0.97)",
              "rgba(237, 129, 40, 0.89)",
              "rgba(245, 54, 54, 0.9)"
            ],
            "datasource": "prom",
            "decimals": 2,
            "editable": true,
            "error": false,
            "format": "bytes",
            "gauge": {
              "maxValue": 100,
              "minValue": 0,
              "show": false,
              "thresholdLabels": false,
              "thresholdMarkers": true
            },
            "height": "1px",
            "id": 14,
            "interval": null,
            "links": [],
            "mappingType": 1,
            "mappingTypes": [
              {
                "name": "value to text",
                "value": 1
              },
              {
                "name": "range to text",
                "value": 2
              }
            ],
            "maxDataPoints": 100,
            "nullPointMode": "connected",
            "nullText": null,
            "postfix": "",
            "postfixFontSize": "50%",
            "prefix": "",
            "prefixFontSize": "50%",
            "rangeMaps": [
              {
                "from": "null",
                "text": "N/A",
                "to": "null"
              }
            ],
            "span": 2,
            "sparkline": {
              "fillColor": "rgba(31, 118, 189, 0.18)",
              "full": false,
              "lineColor": "rgb(31, 120, 193)",
              "show": false
            },
            "tableColumn": "",
            "targets": [
              {
                "expr": "sum (container_fs_limit_bytes{container_name=\"spring-boot\"})",
                "format": "time_series",
                "interval": "10s",
                "intervalFactor": 1,
                "refId": "A",
                "step": 10
              }
            ],
            "thresholds": "",
            "title": "File System Total",
            "type": "singlestat",
            "valueFontSize": "50%",
            "valueMaps": [
              {
                "op": "=",
                "text": "N/A",
                "value": "null"
              }
            ],
            "valueName": "current"
          }
        ],
        "repeat": null,
        "repeatIteration": null,
        "repeatRowId": null,
        "showTitle": false,
        "title": "Total usage",
        "titleSize": "h6"
      },
      {
        "collapse": false,
        "height": 203,
        "panels": [
          {
            "aliasColors": {},
            "bars": false,
            "dashLength": 10,
            "dashes": false,
            "datasource": "prom",
            "decimals": 3,
            "editable": true,
            "error": false,
            "fill": 0,
            "grid": {},
            "height": "",
            "id": 17,
            "legend": {
              "alignAsTable": true,
              "avg": true,
              "current": true,
              "max": true,
              "min": false,
              "rightSide": true,
              "show": true,
              "sort": "current",
              "sortDesc": true,
              "total": false,
              "values": true
            },
            "lines": true,
            "linewidth": 3,
            "links": [],
            "nullPointMode": "connected",
            "percentage": false,
            "pointradius": 5,
            "points": false,
            "renderer": "flot",
            "seriesOverrides": [],
            "spaceLength": 10,
            "span": 6,
            "stack": false,
            "steppedLine": false,
            "targets": [
              {
                "expr": "sum (com_tasmimrashidpk1abay_springboot_controller_WelcomeController_welcome_time{app=\"spring-boot\"}) by (quantile)",
                "format": "time_series",
                "instant": false,
                "interval": "",
                "intervalFactor": 1,
                "legendFormat": "{{ quantile }} ",
                "metric": "container_cpu",
                "refId": "A",
                "step": 10
              }
            ],
            "thresholds": [],
            "timeFrom": null,
            "timeShift": null,
            "title": "Welcome page response time",
            "tooltip": {
              "msResolution": true,
              "shared": true,
              "sort": 2,
              "value_type": "cumulative"
            },
            "transparent": false,
            "type": "graph",
            "xaxis": {
              "buckets": null,
              "mode": "time",
              "name": null,
              "show": true,
              "values": []
            },
            "yaxes": [
              {
                "format": "s",
                "label": "Response Time",
                "logBase": 1,
                "max": null,
                "min": null,
                "show": true
              },
              {
                "format": "short",
                "label": null,
                "logBase": 1,
                "max": null,
                "min": null,
                "show": false
              }
            ]
          },
          {
            "aliasColors": {},
            "bars": false,
            "dashLength": 10,
            "dashes": false,
            "datasource": "prom",
            "decimals": 6,
            "editable": true,
            "error": false,
            "fill": 0,
            "grid": {},
            "height": "",
            "id": 30,
            "legend": {
              "alignAsTable": true,
              "avg": true,
              "current": true,
              "max": true,
              "min": false,
              "rightSide": true,
              "show": false,
              "sort": "current",
              "sortDesc": true,
              "total": false,
              "values": true
            },
            "lines": true,
            "linewidth": 3,
            "links": [],
            "nullPointMode": "connected",
            "percentage": false,
            "pointradius": 5,
            "points": false,
            "renderer": "flot",
            "seriesOverrides": [],
            "spaceLength": 10,
            "span": 6,
            "stack": false,
            "steppedLine": false,
            "targets": [
              {
                "expr": "sum (rate(com_tasmimrashidpk1abay_springboot_controller_WelcomeController_welcome_count_total{app=\"spring-boot\"}[1m])) by (app)",
                "format": "time_series",
                "instant": false,
                "interval": "",
                "intervalFactor": 1,
                "legendFormat": "{{ app }} ",
                "metric": "container_cpu",
                "refId": "A",
                "step": 10
              }
            ],
            "thresholds": [],
            "timeFrom": null,
            "timeShift": null,
            "title": "Welcome page Requests Per Second",
            "tooltip": {
              "msResolution": true,
              "shared": true,
              "sort": 2,
              "value_type": "cumulative"
            },
            "transparent": false,
            "type": "graph",
            "xaxis": {
              "buckets": null,
              "mode": "time",
              "name": null,
              "show": true,
              "values": []
            },
            "yaxes": [
              {
                "format": "none",
                "label": "Num of Requests per second",
                "logBase": 1,
                "max": null,
                "min": null,
                "show": true
              },
              {
                "format": "short",
                "label": null,
                "logBase": 1,
                "max": null,
                "min": null,
                "show": false
              }
            ]
          }
        ],
        "repeat": null,
        "repeatIteration": null,
        "repeatRowId": null,
        "showTitle": false,
        "title": "page response",
        "titleSize": "h6"
      },
      {
        "collapse": false,
        "height": 250,
        "panels": [
          {
            "aliasColors": {},
            "bars": false,
            "dashLength": 10,
            "dashes": false,
            "datasource": "prom",
            "decimals": 2,
            "editable": true,
            "error": false,
            "fill": 1,
            "grid": {},
            "id": 29,
            "legend": {
              "alignAsTable": true,
              "avg": true,
              "current": true,
              "max": false,
              "min": false,
              "rightSide": false,
              "show": true,
              "sideWidth": 200,
              "sort": "current",
              "sortDesc": true,
              "total": false,
              "values": true
            },
            "lines": true,
            "linewidth": 2,
            "links": [],
            "nullPointMode": "connected",
            "percentage": false,
            "pointradius": 5,
            "points": false,
            "renderer": "flot",
            "seriesOverrides": [],
            "spaceLength": 10,
            "span": 12,
            "stack": false,
            "steppedLine": false,
            "targets": [
              {
                "expr": "sum (rate (container_network_receive_bytes_total{name=~\".*spring-boot.*\", container_name=\"POD\"}[1m])) by (pod_name)",
                "format": "time_series",
                "interval": "10s",
                "intervalFactor": 1,
                "legendFormat": "-> {{ pod_name }}",
                "metric": "network",
                "refId": "A",
                "step": 10
              }
            ],
            "thresholds": [],
            "timeFrom": null,
            "timeShift": null,
            "title": "Network I/O (1m avg)",
            "tooltip": {
              "msResolution": false,
              "shared": true,
              "sort": 2,
              "value_type": "cumulative"
            },
            "type": "graph",
            "xaxis": {
              "buckets": null,
              "mode": "time",
              "name": null,
              "show": true,
              "values": []
            },
            "yaxes": [
              {
                "format": "Bps",
                "label": null,
                "logBase": 1,
                "max": null,
                "min": null,
                "show": true
              },
              {
                "format": "short",
                "label": null,
                "logBase": 1,
                "max": null,
                "min": null,
                "show": false
              }
            ]
          }
        ],
        "repeat": null,
        "repeatIteration": null,
        "repeatRowId": null,
        "showTitle": false,
        "title": "Network I/O",
        "titleSize": "h6"
      }
    ],
    "schemaVersion": 14,
    "style": "dark",
    "tags": [
      "appName"
    ],
    "templating": {
      "list": [
        {
          "allValue": ".*",
          "current": {
            "text": "All",
            "value": "$__all"
          },
          "datasource": "prom",
          "hide": 0,
          "includeAll": true,
          "label": null,
          "multi": false,
          "name": "Node",
          "options": [],
          "query": "label_values(kubernetes_io_hostname)",
          "refresh": 1,
          "regex": "",
          "sort": 0,
          "tagValuesQuery": "",
          "tags": [],
          "tagsQuery": "",
          "type": "query",
          "useTags": false
        }
      ]
    },
    "time": {
      "from": "now-5m",
      "to": "now"
    },
    "timepicker": {
      "refresh_intervals": [
        "5s",
        "10s",
        "30s",
        "1m",
        "5m",
        "15m",
        "30m",
        "1h",
        "2h",
        "1d"
      ],
      "time_options": [
        "5m",
        "15m",
        "1h",
        "6h",
        "12h",
        "24h",
        "2d",
        "7d",
        "30d"
      ]
    },
    "timezone": "browser",
    "title": "spring-boot Metrics Dashboard",
    "version": 0
  },
  "overwrite": true
}
